Search Download and Handle Data from Copernicus Marine Service Information • CopernicusMarine
…
Downloading a complete Copernicus marine product

If you don’t want to subset the data and want the complete set, you can use the SpatioTemporal Asset Catalogs (STAC), if these are available for your product. First you can list STAC files available for a specific product (and layer):

stac_files <-
  cms_list_stac_files(
    "GLOBAL_ANALYSISFORECAST_PHY_001_024",
    "cmems_mod_glo_phy-cur_anfc_0.083deg_P1D-m")
stac_files
#> # A tibble: 1,190 × 8
#>    home          native current_path LastModified ETag  Size  StorageClass Type 
#>    <chr>         <chr>  <chr>        <chr>        <chr> <chr> <chr>        <chr>
#>  1 s3.waw3-1.cl… mdl-n… native/GLOB… 2023-11-17T… "\"3… 1937… STANDARD     Norm…
#>  2 s3.waw3-1.cl… mdl-n… native/GLOB… 2023-11-17T… "\"a… 1937… STANDARD     Norm…
#>  3 s3.waw3-1.cl… mdl-n… native/GLOB… 2023-11-17T… "\"f… 1937… STANDARD     Norm…
#>  4 s3.waw3-1.cl… mdl-n… native/GLOB… 2023-11-17T… "\"d… 1938… STANDARD     Norm…
#>  5 s3.waw3-1.cl… mdl-n… native/GLOB… 2023-11-17T… "\"e… 1938… STANDARD     Norm…
#>  6 s3.waw3-1.cl… mdl-n… native/GLOB… 2023-11-17T… "\"5… 1938… STANDARD     Norm…
#>  7 s3.waw3-1.cl… mdl-n… native/GLOB… 2023-11-17T… "\"c… 1938… STANDARD     Norm…
#>  8 s3.waw3-1.cl… mdl-n… native/GLOB… 2023-11-17T… "\"6… 1937… STANDARD     Norm…
#>  9 s3.waw3-1.cl… mdl-n… native/GLOB… 2023-11-17T… "\"5… 1937… STANDARD     Norm…
#> 10 s3.waw3-1.cl… mdl-n… native/GLOB… 2023-11-17T… "\"6… 1937… STANDARD     Norm…
#> # ℹ 1,180 more rows
…
