…
If you don’t want to subset the data and want the complete set, you can
use the SpatioTemporal Asset Catalogs (STAC), if these are available for
your product. First you can list STAC files available for a specific
product (and layer):

``` r
stac_files <-
  cms_list_stac_files(
    "GLOBAL_ANALYSISFORECAST_PHY_001_024",
    "cmems_mod_glo_phy-cur_anfc_0.083deg_P1D-m")
stac_files
#> # A tibble: 915 × 8
#>    home          native current_path LastModified ETag  Size  StorageClass Type 
#>    <chr>         <chr>  <chr>        <chr>        <chr> <chr> <chr>        <chr>
#>  1 s3.waw3-1.cl… mdl-n… native/GLOB… 2024-04-18T… "\"4… 1939… STANDARD     Norm…
#>  2 s3.waw3-1.cl… mdl-n… native/GLOB… 2024-04-18T… "\"9… 1939… STANDARD     Norm…
#>  3 s3.waw3-1.cl… mdl-n… native/GLOB… 2024-04-18T… "\"9… 1939… STANDARD     Norm…
#>  4 s3.waw3-1.cl… mdl-n… native/GLOB… 2024-04-18T… "\"c… 1939… STANDARD     Norm…
#>  5 s3.waw3-1.cl… mdl-n… native/GLOB… 2024-04-18T… "\"2… 1938… STANDARD     Norm…
#>  6 s3.waw3-1.cl… mdl-n… native/GLOB… 2024-04-18T… "\"0… 1938… STANDARD     Norm…
#>  7 s3.waw3-1.cl… mdl-n… native/GLOB… 2024-04-18T… "\"5… 1939… STANDARD     Norm…
#>  8 s3.waw3-1.cl… mdl-n… native/GLOB… 2024-04-18T… "\"5… 1939… STANDARD     Norm…
#>  9 s3.waw3-1.cl… mdl-n… native/GLOB… 2024-04-18T… "\"9… 1939… STANDARD     Norm…
#> 10 s3.waw3-1.cl… mdl-n… native/GLOB… 2024-04-18T… "\"1… 1939… STANDARD     Norm…
#> # ℹ 905 more rows
```
…
