…
Other product-functions:
[`cms_cite_product()`](https://pepijn-devries.github.io/CopernicusMarine/reference/cms_cite_product.md),
[`cms_product_details()`](https://pepijn-devries.github.io/CopernicusMarine/reference/cms_product_details.md),
[`cms_product_services()`](https://pepijn-devries.github.io/CopernicusMarine/reference/cms_product_services.md)

## Author

Pepijn de Vries

## Examples

``` r
cms_products_list()
#> # A tibble: 308 × 19
#>    product_id        catalogue title thumbnailUrl sources processingLevel areas 
#>    <chr>             <chr>     <chr> <chr>        <list>  <chr>           <list>
#>  1 GLOBAL_ANALYSISF… CMEMS     Glob… https://mdl… <list>  Level 4         <list>
#>  2 GLOBAL_ANALYSISF… CMEMS     Glob… https://mdl… <list>  Level 4         <list>
#>  3 GLOBAL_ANALYSISF… CMEMS     Glob… https://mdl… <list>  Level 4         <list>
#>  4 GLOBAL_MULTIYEAR… CMEMS     Glob… https://mdl… <list>  Level 4         <list>
#>  5 GLOBAL_MULTIYEAR… CMEMS     Glob… https://mdl… <list>  Level 4         <list>
#>  6 GLOBAL_MULTIYEAR… CMEMS     Glob… https://mdl… <list>  Level 4         <list>
#>  7 GLOBAL_MULTIYEAR… CMEMS     Glob… https://mdl… <list>  Level 4         <list>
#>  8 GLOBAL_MULTIYEAR… CMEMS     Glob… https://mdl… <list>  Level 4         <list>
#>  9 ARCTIC_ANALYSISF… CMEMS     Arct… https://mdl… <list>  Level 4         <list>
#> 10 ARCTIC_ANALYSIS_… CMEMS     Arct… https://mdl… <list>  Level 4         <list>
#> # ℹ 298 more rows
#> # ℹ 12 more variables: geoResolution <list>, vertLevels <int>,
#> #   tempExtentBegin <chr>, tempResolutions <list>, stacOrCswBbox <list>,
#> #   stacOrCswTbox <list>, mainVariables <list>, `_isViewableOmi` <lgl>,
#> #   numLayers <int>, thumbnailMeta <list>, tempExtentEnd <chr>,
#> #   omiFigureUrl <chr>
…
