…
## Product Services

If you want a more raw access point to your data, you can use
[`cms_product_services()`](https://pepijn-devries.github.io/CopernicusMarine/reference/cms_product_services.md).
It will present a `data.frame` for your product with all services
provided by Copernicus. You can use any of the columns with the
`"_href"` suffix to get an URL of a specific service. If you want to
access those directly, you are on your own. It is easier to use any of
the wrappers provided by this package to access the data.

``` r
cms_product_services("GLOBAL_ANALYSISFORECAST_PHY_001_024")
#> # A tibble: 22 × 61
#>    id        type  stac_version stac_extensions geometry     bbox   properties  
#>    <chr>     <chr> <chr>        <chr>           <list>       <list> <list>      
#>  1 cmems_mo… Feat… 1.0.0        https://stac-e… <named list> <list> <named list>
#>  2 cmems_mo… Feat… 1.0.0        https://stac-e… <named list> <list> <named list>
#>  3 cmems_mo… Feat… 1.0.0        https://stac-e… <named list> <list> <named list>
#>  4 cmems_mo… Feat… 1.0.0        https://stac-e… <named list> <list> <named list>
#>  5 cmems_mo… Feat… 1.0.0        https://stac-e… <named list> <list> <named list>
#>  6 cmems_mo… Feat… 1.0.0        https://stac-e… <named list> <list> <named list>
#>  7 cmems_mo… Feat… 1.0.0        https://stac-e… <named list> <list> <named list>
#>  8 cmems_mo… Feat… 1.0.0        https://stac-e… <named list> <list> <named list>
#>  9 cmems_mo… Feat… 1.0.0        https://stac-e… <named list> <list> <named list>
#> 10 cmems_mo… Feat… 1.0.0        https://stac-e… <named list> <list> <named list>
#> # ℹ 12 more rows
#> # ℹ 54 more variables: links <list>, collection <chr>, native_id <chr>,
#> #   native_href <chr>, native_type <chr>, native_roles <chr>,
#> #   native_title <chr>, native_description <chr>, wmts_id <chr>,
#> #   wmts_href <chr>, wmts_type <chr>, wmts_roles <chr>, wmts_title <chr>,
#> #   wmts_description <chr>, static_id <list<list>>, static_href <list<list>>,
#> #   static_type <list<list>>, static_roles <list<list>>, …
```
